Report
…
Now we can add all the three sources on a single bigram dataframe and check the most frequents

combined_bigrams <- bind_rows(mutate(twitter_bigrams, source = "twitter"),
                             mutate(blogs_bigrams, source = "blogs"),
                             mutate(news_bigrams, source = "news"))

combined_bigrams %>%
  count(bigram, sort = TRUE)

## # A tibble: 2,312,429 x 2
##    bigram      n
##    <chr>   <int>
##  1 of the  41300
##  2 in the  37795
##  3 it is   21719
##  4 to the  19809
##  5 i am    18123
##  6 on the  17596
##  7 for the 16321
##  8 to be   14107
##  9 at the  12662
## 10 and the 12483
## # ... with 2,312,419 more rows
…
Now lets take a look to relative importance of bigrams on each source using tf-idf:

bigrams_united <- bigrams_filtered %>%
  unite(bigram, word1, word2, sep = " ")

bigram_tf_idf <- bigrams_united %>%
  count(source, bigram) %>%
  bind_tf_idf(bigram, source, n) %>%
  arrange(desc(tf_idf))

bigram_tf_idf

## # A tibble: 983,862 x 6
##    source  bigram              n       tf   idf   tf_idf
##    <chr>   <chr>           <int>    <dbl> <dbl>    <dbl>
##  1 twitter rt rt              87 0.000507 1.10  0.000557
##  2 news    dr dollar         197 0.000319 1.10  0.000350
##  3 twitter lol rt             54 0.000315 1.10  0.000346
##  4 twitter happy mothers     144 0.000840 0.405 0.000341
##  5 news    st charles        155 0.000251 1.10  0.000276
##  6 twitter dollar million     39 0.000227 1.10  0.000250
##  7 news    cuyahoga county   130 0.000210 1.10  0.000231
##  8 news    gov chris         115 0.000186 1.10  0.000205
##  9 twitter rt happy           31 0.000181 1.10  0.000199
## 10 news    av dollar         105 0.000170 1.10  0.000187
## # ... with 983,852 more rows
…
As a final step we will see how words correlate between them:

library(widyr)

word_cors <- combined_words %>%
  group_by(word) %>%
  filter(n() >= 500) %>%
  pairwise_cor(word, source, sort = TRUE)

word_cors

## # A tibble: 1,919,610 x 3
##    item1  item2   correlation
##    <chr>  <chr>         <dbl>
##  1 shit   fuck          1.000
##  2 fuck   shit          1.000
##  3 cant  theyre       1.000
##  4 im    theyre       1.000
##  5 id    theyre       1.000
##  6 ill   theyre       1.000
##  7 ive   theyre       1.000
##  8 thats theyre       1.000
##  9 its   theyre       1.000
## 10 isnt  theyre       1.000
## # ... with 1,919,600 more rows
…
